{
  "categoryList": [
    {
      "id": 1,
      "href": "/collections/fruits",
      "title": "Fruits",
      "title_ar": "الفاكهة",
      "key": "fruits",
      "image": "https://cdn.shopify.com/s/files/1/0648/1303/9842/files/Fruits_300x.png?v=1666934777",
      "srcSet": [
        "//cdn.shopify.com/s/files/1/0648/1303/9842/files/Fruits_180x.png?v=1666934777 180w",
        "//cdn.shopify.com/s/files/1/0648/1303/9842/files/Fruits_360x.png?v=1666934777 360w",
        "//cdn.shopify.com/s/files/1/0648/1303/9842/files/Fruits_540x.png?v=1666934777 540w",
        "//cdn.shopify.com/s/files/1/0648/1303/9842/files/Fruits_720x.png?v=1666934777 720w",
        "//cdn.shopify.com/s/files/1/0648/1303/9842/files/Fruits_900x.png?v=1666934777 900w",
        "//cdn.shopify.com/s/files/1/0648/1303/9842/files/Fruits_1080x.png?v=1666934777 1080w",
        "//cdn.shopify.com/s/files/1/0648/1303/9842/files/Fruits_1296x.png?v=1666934777 1296w",
        "//cdn.shopify.com/s/files/1/0648/1303/9842/files/Fruits_1512x.png?v=1666934777 1512w",
        "//cdn.shopify.com/s/files/1/0648/1303/9842/files/Fruits_1728x.png?v=1666934777 1728w",
        "//cdn.shopify.com/s/files/1/0648/1303/9842/files/Fruits_1944x.png?v=1666934777 1944w",
        "//cdn.shopify.com/s/files/1/0648/1303/9842/files/Fruits_2160x.png?v=1666934777 2160w",
        "//cdn.shopify.com/s/files/1/0648/1303/9842/files/Fruits_2376x.png?v=1666934777 2376w",
        "//cdn.shopify.com/s/files/1/0648/1303/9842/files/Fruits_2592x.png?v=1666934777 2592w",
        "//cdn.shopify.com/s/files/1/0648/1303/9842/files/Fruits_2808x.png?v=1666934777 2808w",
        "//cdn.shopify.com/s/files/1/0648/1303/9842/files/Fruits_3024x.png?v=1666934777 3024w"
      ]
    },
    {
      "id": 2,
      "href": "/collections/vegetables",
      "title": "Vegetables",
      "title_ar": "خضروات",
      "key": "vegetables",
      "image": "https://cdn.shopify.com/s/files/1/0648/1303/9842/files/Vegetables_300x.png?v=1666934844",
      "srcSet": [
        "//cdn.shopify.com/s/files/1/0648/1303/9842/files/Vegetables_180x.png?v=1666934844 180w",
        "//cdn.shopify.com/s/files/1/0648/1303/9842/files/Vegetables_360x.png?v=1666934844 360w",
        "//cdn.shopify.com/s/files/1/0648/1303/9842/files/Vegetables_540x.png?v=1666934844 540w",
        "//cdn.shopify.com/s/files/1/0648/1303/9842/files/Vegetables_720x.png?v=1666934844 720w",
        "//cdn.shopify.com/s/files/1/0648/1303/9842/files/Vegetables_900x.png?v=1666934844 900w",
        "//cdn.shopify.com/s/files/1/0648/1303/9842/files/Vegetables_1080x.png?v=1666934844 1080w",
        "//cdn.shopify.com/s/files/1/0648/1303/9842/files/Vegetables_1296x.png?v=1666934844 1296w",
        "//cdn.shopify.com/s/files/1/0648/1303/9842/files/Vegetables_1512x.png?v=1666934844 1512w",
        "//cdn.shopify.com/s/files/1/0648/1303/9842/files/Vegetables_1728x.png?v=1666934844 1728w",
        "//cdn.shopify.com/s/files/1/0648/1303/9842/files/Vegetables_1944x.png?v=1666934844 1944w",
        "//cdn.shopify.com/s/files/1/0648/1303/9842/files/Vegetables_2160x.png?v=1666934844 2160w",
        "//cdn.shopify.com/s/files/1/0648/1303/9842/files/Vegetables_2376x.png?v=1666934844 2376w",
        "//cdn.shopify.com/s/files/1/0648/1303/9842/files/Vegetables_2592x.png?v=1666934844 2592w",
        "//cdn.shopify.com/s/files/1/0648/1303/9842/files/Vegetables_2808x.png?v=1666934844 2808w",
        "//cdn.shopify.com/s/files/1/0648/1303/9842/files/Vegetables_3024x.png?v=1666934844 3024w"
      ]
    },
    {
      "id": 3,
      "href": "/collections/bulkbuy",
      "title": "Bulk Buy",
      "title_ar": "شراء بالجملة",
      "key": "bulkbuy",
      "image": "https://cdn.shopify.com/s/files/1/0648/1303/9842/files/Bulk_buy_300x.png?v=1666934777",
      "srcSet": [
        "//cdn.shopify.com/s/files/1/0648/1303/9842/files/Bulk_buy_180x.png?v=1666934777 180w",
        "//cdn.shopify.com/s/files/1/0648/1303/9842/files/Bulk_buy_360x.png?v=1666934777 360w",
        "//cdn.shopify.com/s/files/1/0648/1303/9842/files/Bulk_buy_540x.png?v=1666934777 540w",
        "//cdn.shopify.com/s/files/1/0648/1303/9842/files/Bulk_buy_720x.png?v=1666934777 720w",
        "//cdn.shopify.com/s/files/1/0648/1303/9842/files/Bulk_buy_900x.png?v=1666934777 900w",
        "//cdn.shopify.com/s/files/1/0648/1303/9842/files/Bulk_buy_1080x.png?v=1666934777 1080w",
        "//cdn.shopify.com/s/files/1/0648/1303/9842/files/Bulk_buy_1296x.png?v=1666934777 1296w",
        "//cdn.shopify.com/s/files/1/0648/1303/9842/files/Bulk_buy_1512x.png?v=1666934777 1512w",
        "//cdn.shopify.com/s/files/1/0648/1303/9842/files/Bulk_buy_1728x.png?v=1666934777 1728w",
        "//cdn.shopify.com/s/files/1/0648/1303/9842/files/Bulk_buy_1944x.png?v=1666934777 1944w",
        "//cdn.shopify.com/s/files/1/0648/1303/9842/files/Bulk_buy_2160x.png?v=1666934777 2160w",
        "//cdn.shopify.com/s/files/1/0648/1303/9842/files/Bulk_buy_2376x.png?v=1666934777 2376w",
        "//cdn.shopify.com/s/files/1/0648/1303/9842/files/Bulk_buy_2592x.png?v=1666934777 2592w",
        "//cdn.shopify.com/s/files/1/0648/1303/9842/files/Bulk_buy_2808x.png?v=1666934777 2808w",
        "//cdn.shopify.com/s/files/1/0648/1303/9842/files/Bulk_buy_3024x.png?v=1666934777 3024w"
      ]
    },
    {
      "id": 4,
      "href": "/collections/organic",
      "title": "Organic",
      "title_ar": "عضوي",
      "key": "organic",
      "image": "https://cdn.shopify.com/s/files/1/0648/1303/9842/files/Organic_300x.png?v=1666934777",
      "srcSet": [
        "//cdn.shopify.com/s/files/1/0648/1303/9842/files/Organic_180x.png?v=1666934777 180w",
        "//cdn.shopify.com/s/files/1/0648/1303/9842/files/Organic_360x.png?v=1666934777 360w",
        "//cdn.shopify.com/s/files/1/0648/1303/9842/files/Organic_540x.png?v=1666934777 540w",
        "//cdn.shopify.com/s/files/1/0648/1303/9842/files/Organic_720x.png?v=1666934777 720w",
        "//cdn.shopify.com/s/files/1/0648/1303/9842/files/Organic_900x.png?v=1666934777 900w",
        "//cdn.shopify.com/s/files/1/0648/1303/9842/files/Organic_1080x.png?v=1666934777 1080w",
        "//cdn.shopify.com/s/files/1/0648/1303/9842/files/Organic_1296x.png?v=1666934777 1296w",
        "//cdn.shopify.com/s/files/1/0648/1303/9842/files/Organic_1512x.png?v=1666934777 1512w",
        "//cdn.shopify.com/s/files/1/0648/1303/9842/files/Organic_1728x.png?v=1666934777 1728w",
        "//cdn.shopify.com/s/files/1/0648/1303/9842/files/Organic_1944x.png?v=1666934777 1944w",
        "//cdn.shopify.com/s/files/1/0648/1303/9842/files/Organic_2160x.png?v=1666934777 2160w",
        "//cdn.shopify.com/s/files/1/0648/1303/9842/files/Organic_2376x.png?v=1666934777 2376w",
        "//cdn.shopify.com/s/files/1/0648/1303/9842/files/Organic_2592x.png?v=1666934777 2592w",
        "//cdn.shopify.com/s/files/1/0648/1303/9842/files/Organic_2808x.png?v=1666934777 2808w",
        "//cdn.shopify.com/s/files/1/0648/1303/9842/files/Organic_3024x.png?v=1666934777 3024w"
      ]
    },
    {
      "id": 5,
      "href": "/collections/precut",
      "title": "Pre-Cut",
      "title_ar": "قص مسبق",
      "key": "precut",
      "image": "https://cdn.shopify.com/s/files/1/0648/1303/9842/files/Pre-cut_300x.png?v=1666934777",
      "srcSet": [
        "//cdn.shopify.com/s/files/1/0648/1303/9842/files/Pre-cut_180x.png?v=1666934777 180w",
        "//cdn.shopify.com/s/files/1/0648/1303/9842/files/Pre-cut_360x.png?v=1666934777 360w",
        "//cdn.shopify.com/s/files/1/0648/1303/9842/files/Pre-cut_540x.png?v=1666934777 540w",
        "//cdn.shopify.com/s/files/1/0648/1303/9842/files/Pre-cut_720x.png?v=1666934777 720w",
        "//cdn.shopify.com/s/files/1/0648/1303/9842/files/Pre-cut_900x.png?v=1666934777 900w",
        "//cdn.shopify.com/s/files/1/0648/1303/9842/files/Pre-cut_1080x.png?v=1666934777 1080w",
        "//cdn.shopify.com/s/files/1/0648/1303/9842/files/Pre-cut_1296x.png?v=1666934777 1296w",
        "//cdn.shopify.com/s/files/1/0648/1303/9842/files/Pre-cut_1512x.png?v=1666934777 1512w",
        "//cdn.shopify.com/s/files/1/0648/1303/9842/files/Pre-cut_1728x.png?v=1666934777 1728w",
        "//cdn.shopify.com/s/files/1/0648/1303/9842/files/Pre-cut_1944x.png?v=1666934777 1944w",
        "//cdn.shopify.com/s/files/1/0648/1303/9842/files/Pre-cut_2160x.png?v=1666934777 2160w",
        "//cdn.shopify.com/s/files/1/0648/1303/9842/files/Pre-cut_2376x.png?v=1666934777 2376w",
        "//cdn.shopify.com/s/files/1/0648/1303/9842/files/Pre-cut_2592x.png?v=1666934777 2592w",
        "//cdn.shopify.com/s/files/1/0648/1303/9842/files/Pre-cut_2808x.png?v=1666934777 2808w",
        "//cdn.shopify.com/s/files/1/0648/1303/9842/files/Pre-cut_3024x.png?v=1666934777 3024w"
      ]
    },
    {
      "id": 6,
      "href": "/collections/prepacked",
      "title": "Pre-Packed",
      "title_ar": "معبأة مسبقا",
      "key": "prepacked",
      "image": "https://cdn.shopify.com/s/files/1/0648/1303/9842/files/Pre-Packed_300x.png?v=1666934844",
      "srcSet": [
        "//cdn.shopify.com/s/files/1/0648/1303/9842/files/Pre-Packed_180x.png?v=1666934844 180w",
        "//cdn.shopify.com/s/files/1/0648/1303/9842/files/Pre-Packed_360x.png?v=1666934844 360w",
        "//cdn.shopify.com/s/files/1/0648/1303/9842/files/Pre-Packed_540x.png?v=1666934844 540w",
        "//cdn.shopify.com/s/files/1/0648/1303/9842/files/Pre-Packed_720x.png?v=1666934844 720w",
        "//cdn.shopify.com/s/files/1/0648/1303/9842/files/Pre-Packed_900x.png?v=1666934844 900w",
        "//cdn.shopify.com/s/files/1/0648/1303/9842/files/Pre-Packed_1080x.png?v=1666934844 1080w",
        "//cdn.shopify.com/s/files/1/0648/1303/9842/files/Pre-Packed_1296x.png?v=1666934844 1296w",
        "//cdn.shopify.com/s/files/1/0648/1303/9842/files/Pre-Packed_1512x.png?v=1666934844 1512w",
        "//cdn.shopify.com/s/files/1/0648/1303/9842/files/Pre-Packed_1728x.png?v=1666934844 1728w",
        "//cdn.shopify.com/s/files/1/0648/1303/9842/files/Pre-Packed_1944x.png?v=1666934844 1944w",
        "//cdn.shopify.com/s/files/1/0648/1303/9842/files/Pre-Packed_2160x.png?v=1666934844 2160w",
        "//cdn.shopify.com/s/files/1/0648/1303/9842/files/Pre-Packed_2376x.png?v=1666934844 2376w",
        "//cdn.shopify.com/s/files/1/0648/1303/9842/files/Pre-Packed_2592x.png?v=1666934844 2592w",
        "//cdn.shopify.com/s/files/1/0648/1303/9842/files/Pre-Packed_2808x.png?v=1666934844 2808w",
        "//cdn.shopify.com/s/files/1/0648/1303/9842/files/Pre-Packed_3024x.png?v=1666934844 3024w"
      ]
    },
    {
      "id": 7,
      "href": "/collections/giftcorner",
      "title": "Gift Corner",
      "title_ar": "ركن الهدايا",
      "key": "giftcorner",
      "image": "https://cdn.shopify.com/s/files/1/0648/1303/9842/files/Gift_Corner_300x.png?v=1666934777",
      "srcSet": [
        "//cdn.shopify.com/s/files/1/0648/1303/9842/files/Gift_Corner_180x.png?v=1666934777 180w",
        "//cdn.shopify.com/s/files/1/0648/1303/9842/files/Gift_Corner_360x.png?v=1666934777 360w",
        "//cdn.shopify.com/s/files/1/0648/1303/9842/files/Gift_Corner_540x.png?v=1666934777 540w",
        "//cdn.shopify.com/s/files/1/0648/1303/9842/files/Gift_Corner_720x.png?v=1666934777 720w",
        "//cdn.shopify.com/s/files/1/0648/1303/9842/files/Gift_Corner_900x.png?v=1666934777 900w",
        "//cdn.shopify.com/s/files/1/0648/1303/9842/files/Gift_Corner_1080x.png?v=1666934777 1080w",
        "//cdn.shopify.com/s/files/1/0648/1303/9842/files/Gift_Corner_1296x.png?v=1666934777 1296w",
        "//cdn.shopify.com/s/files/1/0648/1303/9842/files/Gift_Corner_1512x.png?v=1666934777 1512w",
        "//cdn.shopify.com/s/files/1/0648/1303/9842/files/Gift_Corner_1728x.png?v=1666934777 1728w",
        "//cdn.shopify.com/s/files/1/0648/1303/9842/files/Gift_Corner_1944x.png?v=1666934777 1944w",
        "//cdn.shopify.com/s/files/1/0648/1303/9842/files/Gift_Corner_2160x.png?v=1666934777 2160w",
        "//cdn.shopify.com/s/files/1/0648/1303/9842/files/Gift_Corner_2376x.png?v=1666934777 2376w",
        "//cdn.shopify.com/s/files/1/0648/1303/9842/files/Gift_Corner_2592x.png?v=1666934777 2592w",
        "//cdn.shopify.com/s/files/1/0648/1303/9842/files/Gift_Corner_2808x.png?v=1666934777 2808w",
        "//cdn.shopify.com/s/files/1/0648/1303/9842/files/Gift_Corner_3024x.png?v=1666934777 3024w"
      ]
    },
    {
      "id": 8,
      "href": "/collections/juices",
      "title": "Juices",
      "title_ar": "عصائر",
      "key": "juices",
      "image": "https://cdn.shopify.com/s/files/1/0648/1303/9842/files/Juices_300x.png?v=1666934777",
      "srcSet": [
        "//cdn.shopify.com/s/files/1/0648/1303/9842/files/Juices_180x.png?v=1666934777 180w",
        "//cdn.shopify.com/s/files/1/0648/1303/9842/files/Juices_360x.png?v=1666934777 360w",
        "//cdn.shopify.com/s/files/1/0648/1303/9842/files/Juices_540x.png?v=1666934777 540w",
        "//cdn.shopify.com/s/files/1/0648/1303/9842/files/Juices_720x.png?v=1666934777 720w",
        "//cdn.shopify.com/s/files/1/0648/1303/9842/files/Juices_900x.png?v=1666934777 900w",
        "//cdn.shopify.com/s/files/1/0648/1303/9842/files/Juices_1080x.png?v=1666934777 1080w",
        "//cdn.shopify.com/s/files/1/0648/1303/9842/files/Juices_1296x.png?v=1666934777 1296w",
        "//cdn.shopify.com/s/files/1/0648/1303/9842/files/Juices_1512x.png?v=1666934777 1512w",
        "//cdn.shopify.com/s/files/1/0648/1303/9842/files/Juices_1728x.png?v=1666934777 1728w",
        "//cdn.shopify.com/s/files/1/0648/1303/9842/files/Juices_1944x.png?v=1666934777 1944w",
        "//cdn.shopify.com/s/files/1/0648/1303/9842/files/Juices_2160x.png?v=1666934777 2160w",
        "//cdn.shopify.com/s/files/1/0648/1303/9842/files/Juices_2376x.png?v=1666934777 2376w",
        "//cdn.shopify.com/s/files/1/0648/1303/9842/files/Juices_2592x.png?v=1666934777 2592w",
        "//cdn.shopify.com/s/files/1/0648/1303/9842/files/Juices_2808x.png?v=1666934777 2808w",
        "//cdn.shopify.com/s/files/1/0648/1303/9842/files/Juices_3024x.png?v=1666934777 3024w"
      ]
    },
    {
      "id": 9,
      "href": "/collections/freshblooms",
      "title": "Fresh Blooms",
      "title_ar": "أزهار منعشة",
      "key": "freshblooms",
      "image": "https://cdn.shopify.com/s/files/1/0648/1303/9842/files/fresh_blooms_300x.png?v=1666934777",
      "srcSet": [
        "//cdn.shopify.com/s/files/1/0648/1303/9842/files/fresh_blooms_180x.png?v=1666934777 180w",
        "//cdn.shopify.com/s/files/1/0648/1303/9842/files/fresh_blooms_360x.png?v=1666934777 360w",
        "//cdn.shopify.com/s/files/1/0648/1303/9842/files/fresh_blooms_540x.png?v=1666934777 540w",
        "//cdn.shopify.com/s/files/1/0648/1303/9842/files/fresh_blooms_720x.png?v=1666934777 720w",
        "//cdn.shopify.com/s/files/1/0648/1303/9842/files/fresh_blooms_900x.png?v=1666934777 900w",
        "//cdn.shopify.com/s/files/1/0648/1303/9842/files/fresh_blooms_1080x.png?v=1666934777 1080w",
        "//cdn.shopify.com/s/files/1/0648/1303/9842/files/fresh_blooms_1296x.png?v=1666934777 1296w",
        "//cdn.shopify.com/s/files/1/0648/1303/9842/files/fresh_blooms_1512x.png?v=1666934777 1512w",
        "//cdn.shopify.com/s/files/1/0648/1303/9842/files/fresh_blooms_1728x.png?v=1666934777 1728w",
        "//cdn.shopify.com/s/files/1/0648/1303/9842/files/fresh_blooms_1944x.png?v=1666934777 1944w",
        "//cdn.shopify.com/s/files/1/0648/1303/9842/files/fresh_blooms_2160x.png?v=1666934777 2160w",
        "//cdn.shopify.com/s/files/1/0648/1303/9842/files/fresh_blooms_2376x.png?v=1666934777 2376w",
        "//cdn.shopify.com/s/files/1/0648/1303/9842/files/fresh_blooms_2592x.png?v=1666934777 2592w",
        "//cdn.shopify.com/s/files/1/0648/1303/9842/files/fresh_blooms_2808x.png?v=1666934777 2808w",
        "//cdn.shopify.com/s/files/1/0648/1303/9842/files/fresh_blooms_3024x.png?v=1666934777 3024w"
      ]
    },
    {
      "id": 10,
      "href": "/collections/delmonte",
      "title": "Del Monte",
      "title_ar": "عضوي",
      "key": "delmonte",
      "image": "https://cdn.shopify.com/s/files/1/0648/1303/9842/files/Delmonte_300x.png?v=1666934777",
      "srcSet": [
        "//cdn.shopify.com/s/files/1/0648/1303/9842/files/Delmonte_180x.png?v=1666934777 180w",
        "//cdn.shopify.com/s/files/1/0648/1303/9842/files/Delmonte_360x.png?v=1666934777 360w",
        "//cdn.shopify.com/s/files/1/0648/1303/9842/files/Delmonte_540x.png?v=1666934777 540w",
        "//cdn.shopify.com/s/files/1/0648/1303/9842/files/Delmonte_720x.png?v=1666934777 720w",
        "//cdn.shopify.com/s/files/1/0648/1303/9842/files/Delmonte_900x.png?v=1666934777 900w",
        "//cdn.shopify.com/s/files/1/0648/1303/9842/files/Delmonte_1080x.png?v=1666934777 1080w",
        "//cdn.shopify.com/s/files/1/0648/1303/9842/files/Delmonte_1296x.png?v=1666934777 1296w",
        "//cdn.shopify.com/s/files/1/0648/1303/9842/files/Delmonte_1512x.png?v=1666934777 1512w",
        "//cdn.shopify.com/s/files/1/0648/1303/9842/files/Delmonte_1728x.png?v=1666934777 1728w",
        "//cdn.shopify.com/s/files/1/0648/1303/9842/files/Delmonte_1944x.png?v=1666934777 1944w",
        "//cdn.shopify.com/s/files/1/0648/1303/9842/files/Delmonte_2160x.png?v=1666934777 2160w",
        "//cdn.shopify.com/s/files/1/0648/1303/9842/files/Delmonte_2376x.png?v=1666934777 2376w",
        "//cdn.shopify.com/s/files/1/0648/1303/9842/files/Delmonte_2592x.png?v=1666934777 2592w",
        "//cdn.shopify.com/s/files/1/0648/1303/9842/files/Delmonte_2808x.png?v=1666934777 2808w",
        "//cdn.shopify.com/s/files/1/0648/1303/9842/files/Delmonte_3024x.png?v=1666934777 3024w"
      ]
    }
  ]
}
