// Jest Snapshot v1, https://goo.gl/fbAQLP

exports[`CategoryCard should render the item 1`] = `
<View
  style={
    {
      "alignItems": "center",
    }
  }
  testID="categoryCard"
>
  <View
    style={
      {
        "alignItems": "flex-start",
        "width": "100%",
      }
    }
  >
    <Text
      style={
        [
          {
            "color": "#000000",
            "fontFamily": "System",
            "fontWeight": "400",
          },
          {
            "textAlign": "left",
          },
          {
            "fontSize": 20,
            "marginBottom": 5,
          },
        ]
      }
      variant="titleLarge"
    >
      Categories
    </Text>
  </View>
  <View
    style={
      {
        "alignItems": "center",
        "flexDirection": "row",
        "flexWrap": "wrap",
        "justifyContent": "space-between",
        "width": "100%",
      }
    }
  >
    <View
      accessible={true}
      collapsable={false}
      focusable={true}
      onBlur={[Function]}
      onClick={[Function]}
      onFocus={[Function]}
      onResponderGrant={[Function]}
      onResponderMove={[Function]}
      onResponderRelease={[Function]}
      onResponderTerminate={[Function]}
      onResponderTerminationRequest={[Function]}
      onStartShouldSetResponder={[Function]}
      style={
        {
          "alignItems": "center",
          "display": "flex",
          "flexDirection": "row",
          "height": 120,
          "marginVertical": 10,
          "width": "49%",
        }
      }
    >
      <Image
        source={
          {
            "uri": "https://burst.shopifycdn.com/photos/tea-cup-with-hot-peppers-and-yellow-tomatoes-on-red.jpg?width=240&format=pjpg&exif=1&iptc=1",
          }
        }
        style={
          {
            "borderRadius": 5,
            "height": "100%",
            "width": "100%",
          }
        }
        testID="categoryImage"
      />
    </View>
  </View>
</View>
`;
